<?xml version="1.0" encoding="UTF-8" standalone="no"?>
<!DOCTYPE svg PUBLIC "-//W3C//DTD SVG 1.1//EN"
 "http://www.w3.org/Graphics/SVG/1.1/DTD/svg11.dtd">
<!-- Generated by graphviz version 2.30.1 (20150306.0020)
 -->
<!-- Title: G Pages: 1 -->
<svg width="284pt" height="474pt"
 viewBox="0.00 0.00 284.00 474.00" xmlns="http://www.w3.org/2000/svg" xmlns:xlink="http://www.w3.org/1999/xlink">
<g id="graph0" class="graph" transform="scale(1 1) rotate(0) translate(4 470)">
<title>G</title>
<polygon fill="white" stroke="white" points="-4,5 -4,-470 281,-470 281,5 -4,5"/>
<g id="clust1" class="cluster"><title>cluster_Global</title>
<path fill="none" stroke="gray" d="M20,-8C20,-8 256,-8 256,-8 262,-8 268,-14 268,-20 268,-20 268,-446 268,-446 268,-452 262,-458 256,-458 256,-458 20,-458 20,-458 14,-458 8,-452 8,-446 8,-446 8,-20 8,-20 8,-14 14,-8 20,-8"/>
<text text-anchor="middle" x="138" y="-445.2" font-family="Times,serif" font-size="11.00" fill="gray">Global</text>
</g>
<!-- \\genTokenOptions -->
<g id="node1" class="node"><title>\\genTokenOptions</title>
<polygon fill="none" stroke="black" points="260,-430 142,-430 142,-394 260,-394 260,-430"/>
<text text-anchor="middle" x="201" y="-409.2" font-family="Courier,monospace" font-size="11.00">genTokenOptions</text>
</g>
<!-- \\App -->
<g id="node2" class="node"><title>\\App</title>
<polygon fill="none" stroke="black" points="228,-376 174,-376 174,-340 228,-340 228,-376"/>
<text text-anchor="middle" x="201" y="-355.2" font-family="Courier,monospace" font-size="11.00">App</text>
</g>
<!-- \\automating -->
<g id="node3" class="node"><title>\\automating</title>
<polygon fill="none" stroke="black" points="243,-322 159,-322 159,-286 243,-286 243,-322"/>
<text text-anchor="middle" x="201" y="-301.2" font-family="Courier,monospace" font-size="11.00">automating</text>
</g>
<!-- \\Core -->
<g id="node9" class="node"><title>\\Core</title>
<polygon fill="none" stroke="black" points="70,-160 16,-160 16,-124 70,-124 70,-160"/>
<text text-anchor="middle" x="43" y="-139.2" font-family="Courier,monospace" font-size="11.00">Core</text>
</g>
<!-- \\automating&#45;&gt;\\Core -->
<g id="edge1" class="edge"><title>\\automating&#45;&gt;\\Core</title>
<path fill="none" stroke="black" stroke-dasharray="1,5" d="M158.806,-288.045C152.864,-284.848 147.057,-281.168 142,-277 105.094,-246.584 75.0243,-199.238 58.3273,-169.457"/>
<polygon fill="none" stroke="black" points="61.2634,-167.532 53.3843,-160.449 55.1266,-170.9 61.2634,-167.532"/>
</g>
<!-- \\compute -->
<g id="node4" class="node"><title>\\compute</title>
<polygon fill="none" stroke="black" points="233,-268 169,-268 169,-232 233,-232 233,-268"/>
<text text-anchor="middle" x="201" y="-247.2" font-family="Courier,monospace" font-size="11.00">compute</text>
</g>
<!-- \\compute&#45;&gt;\\Core -->
<g id="edge2" class="edge"><title>\\compute&#45;&gt;\\Core</title>
<path fill="none" stroke="black" stroke-dasharray="1,5" d="M168.827,-237.259C159.915,-233.149 150.359,-228.278 142,-223 116.034,-206.605 89.3466,-184.107 70.3913,-166.981"/>
<polygon fill="none" stroke="black" points="72.5061,-164.172 62.7656,-160.004 67.7809,-169.337 72.5061,-164.172"/>
</g>
<!-- \\errorManagement -->
<g id="node5" class="node"><title>\\errorManagement</title>
<polygon fill="none" stroke="black" points="260,-214 142,-214 142,-178 260,-178 260,-214"/>
<text text-anchor="middle" x="201" y="-193.2" font-family="Courier,monospace" font-size="11.00">errorManagement</text>
</g>
<!-- \\image -->
<g id="node6" class="node"><title>\\image</title>
<polygon fill="none" stroke="black" points="228,-160 174,-160 174,-124 228,-124 228,-160"/>
<text text-anchor="middle" x="201" y="-139.2" font-family="Courier,monospace" font-size="11.00">image</text>
</g>
<!-- \\image&#45;&gt;\\Core -->
<g id="edge3" class="edge"><title>\\image&#45;&gt;\\Core</title>
<path fill="none" stroke="black" stroke-dasharray="1,5" d="M173.889,-142C148.242,-142 108.897,-142 80.2295,-142"/>
<polygon fill="none" stroke="black" points="80.1961,-138.5 70.1961,-142 80.196,-145.5 80.1961,-138.5"/>
</g>
<!-- \\network -->
<g id="node7" class="node"><title>\\network</title>
<polygon fill="none" stroke="black" points="233,-106 169,-106 169,-70 233,-70 233,-106"/>
<text text-anchor="middle" x="201" y="-85.2" font-family="Courier,monospace" font-size="11.00">network</text>
</g>
<!-- \\network&#45;&gt;\\Core -->
<g id="edge4" class="edge"><title>\\network&#45;&gt;\\Core</title>
<path fill="none" stroke="black" stroke-dasharray="1,5" d="M168.806,-98.7979C143.182,-107.668 106.864,-120.24 80.0076,-129.536"/>
<polygon fill="none" stroke="black" points="78.5251,-126.345 70.2201,-132.924 80.8149,-132.96 78.5251,-126.345"/>
</g>
<!-- \\networkLayer3 -->
<g id="node8" class="node"><title>\\networkLayer3</title>
<polygon fill="none" stroke="black" points="253,-52 149,-52 149,-16 253,-16 253,-52"/>
<text text-anchor="middle" x="201" y="-31.2" font-family="Courier,monospace" font-size="11.00">networkLayer3</text>
</g>
<!-- \\networkLayer3&#45;&gt;\\Core -->
<g id="edge5" class="edge"><title>\\networkLayer3&#45;&gt;\\Core</title>
<path fill="none" stroke="black" stroke-dasharray="1,5" d="M157.818,-52.0786C152.38,-54.8583 146.978,-57.8571 142,-61 116.034,-77.3955 89.3466,-99.8935 70.3913,-117.019"/>
<polygon fill="none" stroke="black" points="67.7809,-114.663 62.7656,-123.996 72.5061,-119.828 67.7809,-114.663"/>
</g>
</g>
</svg>
